<svg width="360" height="360" viewBox="0 0 360 360" fill="none" xmlns="http://www.w3.org/2000/svg">
<path d="M74.331 269.219C67.317 269.219 61.6125 263.513 61.6125 256.5C61.6125 249.487 67.3185 243.781 74.331 243.781C81.3435 243.781 87.0495 249.487 87.0495 256.5C87.0495 263.513 81.3435 269.219 74.331 269.219ZM74.331 252.781C72.2805 252.781 70.6125 254.45 70.6125 256.5C70.6125 258.55 72.2805 260.219 74.331 260.219C76.3815 260.219 78.0495 258.55 78.0495 256.5C78.0495 254.45 76.3815 252.781 74.331 252.781Z" fill="black"/>
<path d="M288.782 269.219C281.769 269.219 276.063 263.513 276.063 256.5C276.063 249.487 281.769 243.781 288.782 243.781C295.796 243.781 301.5 249.487 301.5 256.5C301.5 263.513 295.794 269.219 288.782 269.219ZM288.782 252.781C286.733 252.781 285.063 254.45 285.063 256.5C285.063 258.55 286.731 260.219 288.782 260.219C290.832 260.219 292.5 258.55 292.5 256.5C292.5 254.45 290.832 252.781 288.782 252.781Z" fill="black"/>
<path d="M285 261H219C216.515 261 214.5 258.985 214.5 256.5V249C214.5 247.334 215.421 245.802 216.896 245.023C241.695 231.897 256.5 207.589 256.5 180C256.5 139.345 222.214 105 181.63 105C140.347 105 106.761 138.645 106.761 180C106.761 207.688 121.467 231.977 146.1 244.973C147.576 245.753 148.5 247.284 148.5 248.952V256.5C148.5 258.985 146.485 261 144 261H78V252H139.5V251.619C113.308 236.751 97.761 210.176 97.761 180C97.761 133.683 135.385 96 181.63 96C227.092 96 265.5 134.468 265.5 180C265.5 210.083 249.854 236.674 223.5 251.662V252H285V261Z" fill="black"/>
<path d="M46.3155 165.554C50.7255 160.585 56.85 158.099 64.6905 158.099C72.5295 158.099 78.6555 160.585 83.0655 165.554C87.4755 170.524 89.6805 177.49 89.6805 186.449C89.6805 195.412 87.4755 202.375 83.0655 207.346C78.6555 212.317 72.5295 214.801 64.6905 214.801C56.85 214.801 50.7255 212.317 46.3155 207.346C41.9055 202.375 39.7005 195.412 39.7005 186.449C39.7005 177.49 41.9055 170.525 46.3155 165.554ZM47.8905 186.449C47.8905 201.149 53.49 208.499 64.6905 208.499C75.8895 208.499 81.4905 201.149 81.4905 186.449C81.4905 171.749 75.8895 164.399 64.6905 164.399C53.49 164.399 47.8905 171.749 47.8905 186.449Z" fill="black"/>
<path d="M167.664 159.149L167.769 167.339H167.979C173.019 161.18 179.039 158.099 186.039 158.099C192.408 158.099 197.028 159.884 199.899 163.454C202.769 167.024 204.204 172.94 204.204 181.199V213.749H196.329V182.249C196.329 175.319 195.382 170.612 193.492 168.126C191.602 165.642 188.416 164.399 183.939 164.399C180.297 164.399 176.762 166.097 173.333 169.492C169.902 172.888 168.188 176.369 168.188 179.939V213.749H160.103V159.149H167.664Z" fill="black"/>
<path d="M282.187 188.55C282.606 201.99 288.942 208.709 301.192 208.709C305.952 208.709 311.132 207.554 316.731 205.244V212.174C310.991 213.923 305.566 214.799 300.456 214.799C291.846 214.799 285.3 212.436 280.821 207.71C276.34 202.986 274.101 195.897 274.101 186.447C274.101 176.72 276.255 169.56 280.56 164.975C284.863 160.391 290.762 158.097 298.253 158.097C312.953 158.097 320.301 167.303 320.301 185.712C320.301 186.344 320.23 187.289 320.091 188.549H282.187V188.55ZM282.187 182.355H312.426C312.216 170.246 307.491 164.19 298.253 164.19C288.24 164.19 282.886 170.246 282.187 182.355Z" fill="black"/>
</svg>
